…
Relate to gdp

```r
gdp <- WDI::WDI(start = 2019, end = 2019)

country_effect_with_gdp <- all_countries_w_region %>% 
  left_join(gdp, by = c("country_code" = "iso2c"))
country_effect_with_gdp
```

```
## # A tibble: 816,000 × 9
##    country.x drawid name     effect region country_code country.y NY.GDP.PCAP.KD
##    <chr>     <fct>  <chr>     <dbl> <chr>  <chr>        <chr>              <dbl>
##  1 Algeria   1      effec… -1.84e-4 Middl… DZ           Algeria            4115.
##  2 Algeria   2      effec…  1.01e-3 Middl… DZ           Algeria            4115.
##  3 Algeria   3      effec… -3.53e-4 Middl… DZ           Algeria            4115.
##  4 Algeria   4      effec…  1.04e-3 Middl… DZ           Algeria            4115.
##  5 Algeria   5      effec…  9.67e-4 Middl… DZ           Algeria            4115.
##  6 Algeria   6      effec… -8.70e-4 Middl… DZ           Algeria            4115.
##  7 Algeria   7      effec… -1.98e-3 Middl… DZ           Algeria            4115.
##  8 Algeria   8      effec…  2.01e-3 Middl… DZ           Algeria            4115.
##  9 Algeria   9      effec…  1.71e-3 Middl… DZ           Algeria            4115.
## 10 Algeria   10     effec…  1.99e-4 Middl… DZ           Algeria            4115.
## # … with 815,990 more rows, and 1 more variable: year <int>
```
…
